%YAML 1.1
%TAG !u! tag:unity3d.com,2011:
--- !u!114 &11400000
MonoBehaviour:
  m_ObjectHideFlags: 0
  m_CorrespondingSourceObject: {fileID: 0}
  m_PrefabInstance: {fileID: 0}
  m_PrefabAsset: {fileID: 0}
  m_GameObject: {fileID: 0}
  m_Enabled: 1
  m_EditorHideFlags: 0
  m_Script: {fileID: -1893448595, guid: a040fb66244a7f54289914d98ea4ef7d, type: 3}
  m_Name: Interactable
  m_EditorClassIdentifier: 
  _data:
    _json: '{"graph":{"variables":{"collection":{"$content":[],"$version":"A"},"$version":"A"},"controlInputDefinitions":[],"controlOutputDefinitions":[],"valueInputDefinitions":[],"valueOutputDefinitions":[],"title":null,"summary":null,"pan":{"x":1273.808,"y":83.5816},"zoom":0.9,"elements":[{"coroutine":false,"defaultValues":{"target":null},"position":{"x":-342.0,"y":-224.0},"guid":"7d4a287a-9200-48bf-8c6c-cf1cd3e3e625","$version":"A","$type":"Bolt.OnTriggerStay","$id":"9"},{"chainable":false,"member":{"name":"GetKeyDown","parameterTypes":["UnityEngine.KeyCode"],"targetType":"UnityEngine.Input","targetTypeName":"UnityEngine.Input","$version":"A"},"defaultValues":{"%key":{"$content":"E","$type":"UnityEngine.KeyCode"}},"position":{"x":239.0,"y":-225.0},"guid":"d6031f94-6d17-48b7-b7e8-aa241ee118a8","$version":"A","$type":"Bolt.InvokeMember","$id":"11"},{"chainable":false,"member":{"name":"SetActive","parameterTypes":["System.Boolean"],"targetType":"UnityEngine.GameObject","targetTypeName":"UnityEngine.GameObject","$version":"A"},"defaultValues":{"target":null,"%value":{"$content":false,"$type":"System.Boolean"}},"position":{"x":1250.0,"y":-207.0},"guid":"3ee8d3d8-28ae-4e7f-b0b5-cfea96ac9fde","$version":"A","$type":"Bolt.InvokeMember","$id":"14"},{"defaultValues":{"duration":{"$content":5.0,"$type":"System.Single"},"unscaledTime":{"$content":false,"$type":"System.Boolean"}},"position":{"x":1267.0,"y":-11.0},"guid":"aaa54e18-7394-4e62-8948-93c6eb5b8336","$version":"A","$type":"Bolt.Timer","$id":"17"},{"defaultValues":{},"position":{"x":566.0,"y":-11.0},"guid":"afc9d975-b55a-4147-86a8-c0c8007ce6e4","$version":"A","$type":"Bolt.Branch","$id":"19"},{"specifyFallback":false,"kind":"Scene","defaultValues":{"name":{"$content":"Pickup","$type":"System.String"}},"position":{"x":194.0,"y":-60.0},"guid":"0c65e107-f7d0-4b4a-ad3b-b6b7f1ad82fb","$version":"A","$type":"Bolt.GetVariable","$id":"21"},{"numeric":true,"defaultValues":{"b":{"$content":0.0,"$type":"System.Single"}},"position":{"x":367.0,"y":10.0},"guid":"d46d46be-d926-4f05-90c6-e795d344e601","$version":"A","$type":"Bolt.GreaterOrEqual","$id":"23"},{"specifyFallback":false,"kind":"Scene","defaultValues":{"name":{"$content":"GameEnd","$type":"System.String"}},"position":{"x":1514.0,"y":111.0},"guid":"68da3838-5c71-4738-b892-94a85eff0395","$version":"A","$type":"Bolt.GetVariable","$id":"25"},{"specifyFallback":false,"kind":"Scene","defaultValues":{"name":{"$content":"Cell_Tower_Light","$type":"System.String"}},"position":{"x":707.0,"y":5.0},"guid":"97db2104-1b60-4c5f-9f20-1bbae12c7754","$version":"A","$type":"Bolt.GetVariable","$id":"27"},{"chainable":false,"member":{"name":"SetActive","parameterTypes":["System.Boolean"],"targetType":"UnityEngine.GameObject","targetTypeName":"UnityEngine.GameObject","$version":"A"},"defaultValues":{"target":null,"%value":{"$content":true,"$type":"System.Boolean"}},"position":{"x":932.0,"y":-11.0},"guid":"287fcd45-3490-48f0-9ba5-f16be99b0ef1","$version":"A","$type":"Bolt.InvokeMember","$id":"29"},{"coroutine":false,"defaultValues":{},"position":{"x":776.0,"y":-207.0},"guid":"2e66bbaf-de02-494e-9c90-60900d734bfe","$version":"A","$type":"Bolt.Start","$id":"32"},{"chainable":false,"member":{"name":"CompareTag","parameterTypes":["System.String"],"targetType":"UnityEngine.GameObject","targetTypeName":"UnityEngine.GameObject","$version":"A"},"defaultValues":{"target":null,"%tag":{"$content":"Player","$type":"System.String"}},"position":{"x":-96.0,"y":-224.0},"guid":"a50fd432-72af-4ded-b0fc-978b5d8b7650","$version":"A","$type":"Bolt.InvokeMember","$id":"34"},{"chainable":false,"member":{"name":"SetActive","parameterTypes":["System.Boolean"],"targetType":"UnityEngine.GameObject","targetTypeName":"UnityEngine.GameObject","$version":"A"},"defaultValues":{"target":null,"%value":{"$content":false,"$type":"System.Boolean"}},"position":{"x":914.0,"y":-207.0},"guid":"164e440d-af42-43e4-8479-f61b425c0b31","$version":"A","$type":"Bolt.InvokeMember","$id":"37"},{"chainable":false,"member":{"name":"SetActive","parameterTypes":["System.Boolean"],"targetType":"UnityEngine.GameObject","targetTypeName":"UnityEngine.GameObject","$version":"A"},"defaultValues":{"target":null,"%value":{"$content":true,"$type":"System.Boolean"}},"position":{"x":1101.0,"y":-11.0},"guid":"ba33fe0d-0963-4e52-83a2-1ded8f5aa3b9","$version":"A","$type":"Bolt.InvokeMember","$id":"40"},{"specifyFallback":false,"kind":"Scene","defaultValues":{"name":{"$content":"Fuses","$type":"System.String"}},"position":{"x":932.0,"y":115.0},"guid":"68160b7a-28de-4cad-9462-9aaea2264308","$version":"A","$type":"Bolt.GetVariable","$id":"43"},{"specifyFallback":false,"kind":"Scene","defaultValues":{"name":{"$content":"Fuses","$type":"System.String"}},"position":{"x":914.0,"y":-296.0},"guid":"75e727bd-4256-432d-b694-e6af2374483e","$version":"A","$type":"Bolt.GetVariable","$id":"45"},{"specifyFallback":false,"kind":"Scene","defaultValues":{"name":{"$content":"GameEnd","$type":"System.String"}},"position":{"x":1081.0,"y":-297.0},"guid":"027c9311-aaa2-4e94-a91c-0e01058e55ea","$version":"A","$type":"Bolt.GetVariable","$id":"47"},{"chainable":false,"member":{"name":"SetActive","parameterTypes":["System.Boolean"],"targetType":"UnityEngine.GameObject","targetTypeName":"UnityEngine.GameObject","$version":"A"},"defaultValues":{"target":null,"%value":{"$content":true,"$type":"System.Boolean"}},"position":{"x":1512.0,"y":-12.0},"guid":"91e58782-c179-49c4-aa4f-896239b20bd9","$version":"A","$type":"Bolt.InvokeMember","$id":"49"},{"defaultValues":{},"position":{"x":87.0,"y":-224.0},"guid":"8ea2dab0-a362-4d64-bdce-cd6552fcda96","$version":"A","$type":"Bolt.Branch","$id":"52"},{"chainable":false,"member":{"name":"SetActive","parameterTypes":["System.Boolean"],"targetType":"UnityEngine.GameObject","targetTypeName":"UnityEngine.GameObject","$version":"A"},"defaultValues":{"target":null,"%value":{"$content":false,"$type":"System.Boolean"}},"position":{"x":1082.0,"y":-207.0},"guid":"8fe171e8-29ac-4a35-b0ff-beb5d880e272","$version":"A","$type":"Bolt.InvokeMember","$id":"54"},{"type":"System.Int32","value":{"$content":3,"$type":"System.Int32"},"defaultValues":{},"position":{"x":196.0,"y":28.0},"guid":"e533077e-70cd-4ba6-9ab7-c3aa6f19b036","$version":"A","$type":"Bolt.Literal","$id":"57"},{"defaultValues":{},"position":{"x":433.0,"y":-225.0},"guid":"78d77729-2d69-4ba3-9349-0cb04b6b58e1","$version":"A","$type":"Bolt.Branch","$id":"59"},{"sourceUnit":{"$ref":"40"},"sourceKey":"exit","destinationUnit":{"$ref":"17"},"destinationKey":"start","guid":"61224da2-b25f-4292-aa82-f22f5d535919","$type":"Bolt.ControlConnection"},{"sourceUnit":{"$ref":"52"},"sourceKey":"ifTrue","destinationUnit":{"$ref":"11"},"destinationKey":"enter","guid":"033fc5d7-0610-4f5e-bb8f-0105c6e0fe90","$type":"Bolt.ControlConnection"},{"sourceUnit":{"$ref":"19"},"sourceKey":"ifTrue","destinationUnit":{"$ref":"29"},"destinationKey":"enter","guid":"649a496a-f15d-4db7-90af-bed3b44984b4","$type":"Bolt.ControlConnection"},{"sourceUnit":{"$ref":"17"},"sourceKey":"completed","destinationUnit":{"$ref":"49"},"destinationKey":"enter","guid":"27aa0627-975c-40fe-b40b-e8ab1d8989b6","$type":"Bolt.ControlConnection"},{"sourceUnit":{"$ref":"32"},"sourceKey":"trigger","destinationUnit":{"$ref":"37"},"destinationKey":"enter","guid":"91c46efb-3658-43a5-b432-6a8d4c2ed10b","$type":"Bolt.ControlConnection"},{"sourceUnit":{"$ref":"59"},"sourceKey":"ifTrue","destinationUnit":{"$ref":"19"},"destinationKey":"enter","guid":"0e99c0c4-cf18-4b59-9e27-b99fa27ca9a9","$type":"Bolt.ControlConnection"},{"sourceUnit":{"$ref":"9"},"sourceKey":"trigger","destinationUnit":{"$ref":"34"},"destinationKey":"enter","guid":"ad14be72-279d-4594-8af6-8295ff89a0ee","$type":"Bolt.ControlConnection"},{"sourceUnit":{"$ref":"37"},"sourceKey":"exit","destinationUnit":{"$ref":"54"},"destinationKey":"enter","guid":"14a20c1d-f238-4871-884b-f8851de3e039","$type":"Bolt.ControlConnection"},{"sourceUnit":{"$ref":"29"},"sourceKey":"exit","destinationUnit":{"$ref":"40"},"destinationKey":"enter","guid":"5523c403-612a-48b3-a229-73d2234791f0","$type":"Bolt.ControlConnection"},{"sourceUnit":{"$ref":"34"},"sourceKey":"exit","destinationUnit":{"$ref":"52"},"destinationKey":"enter","guid":"af4e157e-188a-4593-9ef6-20ff112f6385","$type":"Bolt.ControlConnection"},{"sourceUnit":{"$ref":"11"},"sourceKey":"exit","destinationUnit":{"$ref":"59"},"destinationKey":"enter","guid":"3eb0a456-f5d6-4b7a-88d9-87b3ce690811","$type":"Bolt.ControlConnection"},{"sourceUnit":{"$ref":"54"},"sourceKey":"exit","destinationUnit":{"$ref":"14"},"destinationKey":"enter","guid":"7a4ba5ec-4652-43fe-b6fb-aca9ca19b1c3","$type":"Bolt.ControlConnection"},{"sourceUnit":{"$ref":"25"},"sourceKey":"value","destinationUnit":{"$ref":"49"},"destinationKey":"target","guid":"776fe4c0-37dd-4a1a-b455-1ae5564082f9","$type":"Bolt.ValueConnection"},{"sourceUnit":{"$ref":"47"},"sourceKey":"value","destinationUnit":{"$ref":"14"},"destinationKey":"target","guid":"7e03a4ea-cd70-4f21-b36d-1e0470b3f6c9","$type":"Bolt.ValueConnection"},{"sourceUnit":{"$ref":"9"},"sourceKey":"collider","destinationUnit":{"$ref":"34"},"destinationKey":"target","guid":"3920384b-757a-416f-bde2-7f39518ba7df","$type":"Bolt.ValueConnection"},{"sourceUnit":{"$ref":"57"},"sourceKey":"output","destinationUnit":{"$ref":"23"},"destinationKey":"b","guid":"c4749ed6-9d21-4cd6-90bc-49358886b9e8","$type":"Bolt.ValueConnection"},{"sourceUnit":{"$ref":"27"},"sourceKey":"value","destinationUnit":{"$ref":"29"},"destinationKey":"target","guid":"42e05587-36fa-4fd4-81ac-92a63eb38644","$type":"Bolt.ValueConnection"},{"sourceUnit":{"$ref":"11"},"sourceKey":"result","destinationUnit":{"$ref":"59"},"destinationKey":"condition","guid":"6968aea4-da23-4ab6-a798-de839e620bbc","$type":"Bolt.ValueConnection"},{"sourceUnit":{"$ref":"21"},"sourceKey":"value","destinationUnit":{"$ref":"23"},"destinationKey":"a","guid":"be4161a2-e8a0-43f1-9553-8ac8a3c8c5e1","$type":"Bolt.ValueConnection"},{"sourceUnit":{"$ref":"45"},"sourceKey":"value","destinationUnit":{"$ref":"54"},"destinationKey":"target","guid":"00032f7b-b035-4dae-8fad-2ee99f18a98f","$type":"Bolt.ValueConnection"},{"sourceUnit":{"$ref":"43"},"sourceKey":"value","destinationUnit":{"$ref":"40"},"destinationKey":"target","guid":"1bfd54c0-8e59-46e5-9bc4-60389e573ebf","$type":"Bolt.ValueConnection"},{"sourceUnit":{"$ref":"34"},"sourceKey":"result","destinationUnit":{"$ref":"52"},"destinationKey":"condition","guid":"2267dac8-c25a-462d-b47a-f55e729397f1","$type":"Bolt.ValueConnection"},{"sourceUnit":{"$ref":"27"},"sourceKey":"value","destinationUnit":{"$ref":"37"},"destinationKey":"target","guid":"65fc9c21-88b5-434d-b7dd-a8c38439ca09","$type":"Bolt.ValueConnection"},{"sourceUnit":{"$ref":"23"},"sourceKey":"comparison","destinationUnit":{"$ref":"19"},"destinationKey":"condition","guid":"83443548-a786-41d5-90a6-08aa21060a07","$type":"Bolt.ValueConnection"},{"position":{"xMin":174.0,"yMin":-96.0,"xMax":683.0,"yMax":136.0},"label":"RequiredPickups","comment":null,"color":{"r":0.0,"g":0.0,"b":0.0,"a":1.0},"guid":"e868a20e-ee7a-4959-9ea9-a2b39bfde4f6","$version":"A","$type":"Ludiq.GraphGroup"},{"position":{"xMin":202.0,"yMin":-265.0,"xMax":545.0,"yMax":-98.0},"label":"ButtonPress","comment":null,"color":{"r":0.0,"g":0.0,"b":0.0,"a":1.0},"guid":"f74b1b78-9aba-4b97-ac9e-e14eb7408d6c","$version":"A","$type":"Ludiq.GraphGroup"},{"position":{"xMin":-359.0,"yMin":-264.0,"xMax":201.0,"yMax":-97.0},"label":"CollisionDetection","comment":null,"color":{"r":0.0,"g":0.0,"b":0.0,"a":1.0},"guid":"c2b2ecb8-6345-49ff-96e4-2f9dbd50185a","$version":"A","$type":"Ludiq.GraphGroup"},{"position":{"xMin":684.0,"yMin":-70.0,"xMax":1740.0,"yMax":240.0},"label":"Enable","comment":null,"color":{"r":0.0,"g":0.0,"b":0.0,"a":1.0},"guid":"bddc4916-c76f-40c2-8a25-3d451c951042","$version":"A","$type":"Ludiq.GraphGroup"},{"position":{"xMin":767.0,"yMin":-324.0,"xMax":1418.0,"yMax":-75.0},"label":"StartDisabled","comment":null,"color":{"r":0.0,"g":0.0,"b":0.0,"a":1.0},"guid":"462e30bc-68d7-4ab1-a5f7-5b304659e334","$version":"A","$type":"Ludiq.GraphGroup"}],"$version":"A"}}'
    _objectReferences: []
